{
	"manifest_version": 2,
	"name": "__MSG_appName__",
	"version": "1.16.0",
	"description": "__MSG_appDescription__",
	"author": "rubenwardy",
	"homepage_url": "https://renewedtab.com/",
	"offline_enabled": true,
	"minimum_chrome_version": "78",
	"default_locale": "en",
	"icons": {
		"32": "icon-32.png",
		"48": "icon-48.png",
		"128": "icon-128.png"
	},
	"chrome_url_overrides" : {
		"newtab": "app/webext.html"
	},
	"permissions": [
		"storage",
		"search"
	],
	"optional_permissions": [
		"<all_urls>",
		"bookmarks",
		"topSites"
	]
}
